Assignment 03 - Lego Sales - Dylan McKenna - Fundamentals of Analytics
…
##   age = col_double(),
##   phone_number = col_character(),
##   set_id = col_double(),
##   number = col_character(),
##   theme = col_character(),
##   subtheme = col_character(),
##   year = col_double(),
##   name = col_character(),
##   pieces = col_double(),
##   us_price = col_double(),
##   image_url = col_character(),
##   quantity = col_double()
## )

## # A tibble: 620 x 10
##    first_name last_name    age theme   subtheme   year name      pieces us_price
##    <chr>      <chr>      <dbl> <chr>   <chr>     <dbl> <chr>      <dbl>    <dbl>
##  1 Serena     Bartkowiak    16 Bionic~ Miscella~  2018 Kopaka a~    171    25.0 
##  2 Serena     Bartkowiak    16 Star W~ Buildabl~  2018 Rey           84    20.0 
##  3 Serena     Bartkowiak    16 Season~ Valentin~  2018 Valentin~    150     9.99
##  4 Talise     Nieukirk      16 Mixels  Series 7   2018 Tiketz        62     4.99
##  5 Natalia    Vonduyke      16 Gear    Key Chai~  2018 Airjitzu~     NA     5.99
##  6 Natalia    Vonduyke      16 Duplo   <NA>       2018 Tow Truck     28    20.0 
##  7 Natalia    Vonduyke      16 Nexo K~ Ultimate   2018 Ultimate~     82     9.99
##  8 Natalia    Vonduyke      16 Star W~ The Forc~  2018 Resistan~    740    80.0 
##  9 Steven     Washington    16 City    Fire       2018 Fire Car      53     3.99
## 10 Steven     Washington    16 City    <NA>       2018 Sports C~     47     3.99
## # ... with 610 more rows, and 1 more variable: quantity <dbl>
…
Create a Question

How much does each age group spend on each theme?

lego_themespending <- lego_cleaned %>%
mutate(us_cost = us_price * quantity) %>%
  group_by(age_group, theme) %>%
  select(age_group, theme, us_cost)

lego_themespending

## # A tibble: 620 x 3
## # Groups:   age_group, theme [101]
##    age_group    theme        us_cost
##    <chr>        <chr>          <dbl>
##  1 18 and under Bionicle       50.0 
##  2 18 and under Star Wars      20.0 
##  3 18 and under Seasonal        9.99
##  4 18 and under Mixels          9.98
##  5 18 and under Gear           12.0 
##  6 18 and under Duplo          20.0 
##  7 18 and under Nexo Knights    9.99
##  8 18 and under Star Wars      80.0 
##  9 18 and under City            3.99
## 10 18 and under City           20.0 
## # ... with 610 more rows
…
