Assignment A02: TIDYVERSE - Dylan McKenna - Fundamentals of Analytics
…
    )

# Create an Batting Average variable
batting_full <- batting_full %>%
  mutate(Avg. = H / AB)

fielding_full <- relocate(fielding_full, playerID, nameFirst, nameLast, bats, birthCountry)

batting_full <- relocate(batting_full,  playerID, nameFirst, nameLast, bats, birthCountry )

batting_full <- relocate(batting_full, Avg., .after = G)

batting_full

## # A tibble: 101,332 x 28
##    playerID nameFirst nameLast bats  birthCountry  Year stint Team  League     G
##    <chr>    <chr>     <chr>    <chr> <chr>        <dbl> <dbl> <chr> <chr>  <dbl>
##  1 abercda~ Frank     Abercro~ <NA>  USA           1871     1 TRO   <NA>       1
##  2 addybo01 Bob       Addy     L     CAN           1871     1 RC1   <NA>      25
##  3 allisar~ Art       Allison  <NA>  USA           1871     1 CL1   <NA>      29
##  4 allisdo~ Doug      Allison  R     USA           1871     1 WS3   <NA>      27
##  5 ansonca~ Cap       Anson    R     USA           1871     1 RC1   <NA>      25
##  6 armstbo~ Robert    Armstro~ <NA>  USA           1871     1 FW1   <NA>      12
##  7 barkeal~ Al        Barker   <NA>  USA           1871     1 RC1   <NA>       1
##  8 barnero~ Ross      Barnes   R     USA           1871     1 BS1   <NA>      31
##  9 barrebi~ Bill      Barrett  <NA>  USA           1871     1 FW1   <NA>       1
## 10 barrofr~ Frank     Barrows  <NA>  USA           1871     1 BS1   <NA>      18
## # ... with 101,322 more rows, and 18 more variables: Avg. <dbl>, AB <dbl>,
## #   R <dbl>, H <dbl>, 2B <dbl>, 3B <dbl>, HR <dbl>, RBI <dbl>, SB <dbl>,
## #   CS <dbl>, BB <dbl>, SO <dbl>, IBB <dbl>, HBP <dbl>, SH <dbl>, SF <lgl>,
## #   GIDP <dbl>, throws <chr>
…
