…
## ggplot using Teams and count for players that played full seasons, use color as year

ggplot(batting_games, aes(y = Team)) +
  geom_bar(width=1) +
  xlab("Number of Players") +
  theme_bw()

<img src="{{< blogdown/postref >}}index_files/figure-html/unnamed-chunk-9-1.png" width="672" />

Pivoting

For this data, I did not find a useful way to pivot the data. The data is already organized in the way I would use it.

## # A tibble: 2,796 x 74
##    nameFirst nameLast  Year     G  Avg.    HR    BB    SO AB_TOR AB_ARI AB_LAN
##    <chr>     <chr>    <dbl> <dbl> <dbl> <dbl> <dbl> <dbl>  <dbl>  <dbl>  <dbl>
##  1 Jose      Cruz      2000   162 0.242    31    71   129    603     NA     NA
##  2 Carlos    Delgado   2000   162 0.344    41   123   104    569     NA     NA
##  3 Luis      Gonzalez  2000   162 0.311    31    78    85     NA    618     NA
##  4 Shawn     Green     2000   162 0.269    24    90   121     NA     NA    610
##  5 Neifi     Perez     2000   162 0.287    10    30    63     NA     NA     NA
##  6 Bobby     Abreu     2001   162 0.289    31   106   137     NA     NA     NA
##  7 Orlando   Cabrera   2001   162 0.276    14    43    54     NA     NA     NA
##  8 Carlos    Delgado   2001   162 0.279    39   111   136    574     NA     NA
##  9 Luis      Gonzalez  2001   162 0.325    57   100    83     NA    609     NA
## 10 Terrence  Long      2001   162 0.283    12    52   103     NA     NA     NA
## # ... with 2,786 more rows, and 63 more variables: AB_COL <dbl>, AB_PHI <dbl>,
## #   AB_MON <dbl>, AB_OAK <dbl>, AB_TEX <dbl>, AB_KCA <dbl>, AB_CIN <dbl>,
## #   AB_FLO <dbl>, AB_TBA <dbl>, AB_MIL <dbl>, AB_NYA <dbl>, AB_BAL <dbl>,
## #   AB_PIT <dbl>, AB_SEA <dbl>, AB_ATL <dbl>, AB_CHN <dbl>, AB_CLE <dbl>,
## #   AB_HOU <dbl>, AB_WAS <dbl>, AB_SDN <dbl>, AB_DET <dbl>, AB_SFN <dbl>,
## #   AB_ANA <dbl>, AB_SLN <dbl>, AB_NYN <dbl>, AB_CHA <dbl>, AB_MIN <dbl>,
## #   AB_MIA <dbl>, AB_BOS <dbl>, AB_LAA <dbl>, H_TOR <dbl>, H_ARI <dbl>,
## #   H_LAN <dbl>, H_COL <dbl>, H_PHI <dbl>, H_MON <dbl>, H_OAK <dbl>,
## #   H_TEX <dbl>, H_KCA <dbl>, H_CIN <dbl>, H_FLO <dbl>, H_TBA <dbl>,
…
